<?xml version="1.0" encoding="utf-8"?>
<!-- Generator: Adobe Illustrator 21.0.0, SVG Export Plug-In . SVG Version: 6.00 Build 0)  -->
<svg version="1.1" id="Capa_1" xmlns="http://www.w3.org/2000/svg" xmlns:xlink="http://www.w3.org/1999/xlink" x="0px" y="0px"
	 viewBox="0 0 447.2 512" style="enable-background:new 0 0 447.2 512;" xml:space="preserve">
<style type="text/css">
	.st0{fill:#FFFFFF;}
</style>
<path class="st0" d="M343.9,232.5V198c5-12,16.5-44.6,14.7-87.2c-1.2-27.5,15.2-83,15.4-83.6l3.2-10.8L305.9,0l-2.5,10.2
	c0,0.1-3.8,14.9-15.3,29.5c-15.5,19.6-37.2,29.6-64.5,29.6c-64.4,0-79.2-56.7-79.8-59.1L141.4,0L70.2,16.4l3.2,10.8
	c0.2,0.6,16.5,56,15.4,83.6C87,153.4,98.4,186,103.4,198v34.3L0,465.6l6,5.1c2,1.7,50.3,41.3,217.6,41.3s215.6-39.6,217.6-41.3
	l6-5.1L343.9,232.5z M124.7,224v-15.1h198V224H124.7z M126.6,25.2c2.9,7.2,7.9,17.5,16,27.7c13.6,17.2,38.7,37.6,81.1,37.6
	s67.5-20.5,81.1-37.6c8.1-10.2,13.1-20.5,16-27.7l29.7,6.8c-5,18.5-14.2,56.4-13.2,79.6c1.5,35.9-7.6,64.2-12.2,76h-203
	c-4.6-11.7-13.7-39.8-12.2-76c1-23.2-8.2-61.1-13.2-79.6L126.6,25.2z M385.4,472.6c-51.4,15-116.3,18.2-161.8,18.2
	s-110.4-3.2-161.8-18.2c-17.9-5.2-29.2-10.5-35.5-14L121,245.2h39.4l-20.9,92.6l20.7,4.7l21.9-97.3h82l21.9,97.3l20.7-4.7L286,245.2
	h40.3l94.6,213.4C414.6,462.1,403.2,467.4,385.4,472.6z"/>
</svg>
