<?xml version="1.0" encoding="utf-8"?>
<!-- Generator: Adobe Illustrator 21.0.0, SVG Export Plug-In . SVG Version: 6.00 Build 0)  -->
<svg version="1.1" id="Слой_1" xmlns="http://www.w3.org/2000/svg" xmlns:xlink="http://www.w3.org/1999/xlink" x="0px" y="0px"
	 viewBox="0 0 51 51" style="enable-background:new 0 0 51 51;" xml:space="preserve">
<style type="text/css">
	.st0{fill:#FFFFFF;}
</style>
<title>Forma 1</title>
<path id="Forma_1" class="st0" d="M47.8,12.8H3.2c-1.8,0-3.2,1.4-3.2,3.2v9.6h3.2v22.3c0,1.8,1.4,3.2,3.2,3.2h38.3
	c1.8,0,3.2-1.4,3.2-3.2V25.5H51v-9.6C51,14.2,49.6,12.8,47.8,12.8z M3.2,15.9h19.1v6.4H3.2V15.9z M6.4,47.8V25.5h15.9v22.3H6.4z
	 M44.6,47.8H28.8V25.5h15.9V47.8z M47.8,22.3h-19v-6.4h19.1L47.8,22.3z M25.5,9.6L25.5,9.6L25.5,9.6L25.5,9.6h12.8
	c4.4,0,6.4-2.1,6.4-4.8S42.7,0,38.3,0c-3.6,0-7,1.5-9.6,4c-2-1.2-4.4-1.2-6.4-0.1C19.7,1.4,16.3,0,12.8,0C8.4,0,6.4,2.1,6.4,4.8
	s2,4.8,6.4,4.8H25.5z M41.4,4.8c0,1.3-1.7,1.6-3.2,1.6H31l-0.1-0.1c1.9-1.9,4.6-3,7.3-3C39.7,3.2,41.4,3.5,41.4,4.8L41.4,4.8z
	 M9.6,4.8c0-1.3,1.7-1.6,3.2-1.6c2.7,0,5.3,1.1,7.2,2.9l-0.1,0.2h-7.1C11.3,6.4,9.6,6.1,9.6,4.8z"/>
</svg>
