<?xml version="1.0" encoding="utf-8"?>
<!-- Generator: Adobe Illustrator 21.0.0, SVG Export Plug-In . SVG Version: 6.00 Build 0)  -->
<svg version="1.1" id="Слой_1" xmlns="http://www.w3.org/2000/svg" xmlns:xlink="http://www.w3.org/1999/xlink" x="0px" y="0px"
	 viewBox="0 0 333.7 261.5" style="enable-background:new 0 0 333.7 261.5;" xml:space="preserve">
<style type="text/css">
	.st0{fill:#FFFFFF;}
</style>
<path class="st0" d="M330.9,178.1L278,138.2v-16c0-2.2-1-4.3-2.8-5.6L171.1,38.1c-2.5-1.9-5.9-1.9-8.4,0L58.5,116.6
	c-1.8,1.3-2.8,3.4-2.8,5.6v16L2.8,178.1C1,179.5,0,181.5,0,183.7v70.7c0,3.9,3.1,7,7,7h55.7h55.7h96.9H271h55.7c3.9,0,7-3.1,7-7
	v-70.7C333.7,181.5,332.7,179.5,330.9,178.1L330.9,178.1z M174.4,247.5h-15.1v-35.3h15.1V247.5L174.4,247.5z M188.4,247.5v-42.3
	c0-3.9-3.1-7-7-7h-29.1c-3.9,0-7,3.1-7,7v42.3h-33.9H69.7V125.7l97.2-73.3l97.2,73.3v121.8h-41.7H188.4z M14,187.2l41.7-31.4v91.7
	H14V187.2z M319.7,247.5H278v-91.7l41.7,31.4V247.5z"/>
<path class="st0" d="M11.2,133.1L166.9,15.8l155.6,117.4c1.3,1,2.7,1.4,4.2,1.4c2.1,0,4.2-1,5.6-2.8c2.3-3.1,1.7-7.5-1.4-9.8
	L171.1,1.4c-2.5-1.9-5.9-1.9-8.4,0L2.8,122c-3.1,2.3-3.7,6.7-1.4,9.8C3.7,134.9,8.1,135.5,11.2,133.1z"/>
</svg>
