<?xml version="1.0" encoding="utf-8"?>
<!-- Generator: Adobe Illustrator 21.0.0, SVG Export Plug-In . SVG Version: 6.00 Build 0)  -->
<svg version="1.1" id="Layer_1" xmlns="http://www.w3.org/2000/svg" xmlns:xlink="http://www.w3.org/1999/xlink" x="0px" y="0px"
	 viewBox="0 0 512 306.8" style="enable-background:new 0 0 512 306.8;" xml:space="preserve">
<style type="text/css">
	.st0{fill:#1B5D7F;}
</style>
<g>
	<g>
		<path class="st0" d="M511.9,195.2L494.8,49.8c-0.5-4-3.9-7.1-8-7.1H320.7c5.6-11,3.8-24.9-5.4-34.1c-11.5-11.5-30.1-11.5-41.6,0
			c-5.5,5.5-12.4,21.3-17.7,35.4c-5.3-14-12.2-29.9-17.7-35.4c-11.5-11.5-30.1-11.5-41.6,0c-9.2,9.2-11,23.1-5.4,34.1H25.1
			c-4.1,0-7.5,3-8,7.1l-17,145.4c-0.3,2.4,0.5,4.7,2.1,6.4c0.7,0.7,1.4,1.2,2.3,1.7l0,0L197,299.6c9.4,4.7,19.9,7.2,30.4,7.2h57.3
			c10.5,0,21-2.5,30.4-7.2l192.6-96.3l0,0c0.8-0.4,1.6-1,2.3-1.7C511.4,199.9,512.2,197.5,511.9,195.2z M285,19.9
			c2.6-2.6,6-3.9,9.4-3.9s6.8,1.3,9.4,3.9c5.2,5.2,5.2,13.7,0,18.9c-3.3,3.3-18.5,9.9-34.8,15.9C275.1,38.5,281.8,23.2,285,19.9z
			 M301.4,58.8h178.4l2.1,18.2H270c-1.7-1.5-3.2-2.8-4.6-3.8C275.2,69.7,290.1,64.3,301.4,58.8z M208.1,19.9c2.6-2.6,6-3.9,9.4-3.9
			s6.8,1.3,9.4,3.9c3.3,3.3,9.9,18.5,15.9,34.8c-16.3-6-31.5-12.7-34.8-15.9C202.9,33.6,202.9,25.1,208.1,19.9z M32.2,58.8h178.4
			c11.3,5.5,26.2,11,36,14.4c-1.4,1.1-2.9,2.3-4.6,3.8H30.1L32.2,58.8z M45.3,205.8c10.3,1.2,22.1,3.1,34.6,6.1
			c33.4,8.1,78.6,26.2,110.4,66.4L45.3,205.8z M321.7,278.3c25.4-32.4,62.4-54.7,109.9-66.3c12.7-3.1,24.7-5,35.1-6.2L321.7,278.3z
			 M428.3,196.3c-55.5,13.5-99.4,42-126.8,82.4c-5.1,7.5-13.3,12-21.9,12h-47.1c-8.6,0-16.8-4.5-21.9-12
			c-27.5-40.5-71.3-69-126.8-82.4c-28.9-7-53.7-8.3-66.6-8.4l11.2-95h200.9c-3.9,7.1-6.8,15.8-6.8,26.2c0,4.4,3.6,8,8,8s8-3.6,8-8
			c0-11.5,5-20.2,10.2-26.2h14.8c5.2,6,10.3,14.7,10.3,26.2c0,4.4,3.6,8,8,8s8-3.6,8-8c0-10.4-2.9-19.1-6.8-26.2h200.9l11.2,95
			C482,188.1,457.2,189.3,428.3,196.3z"/>
	</g>
</g>
</svg>
