<?xml version="1.0" encoding="utf-8"?>
<!-- Generator: Adobe Illustrator 21.0.0, SVG Export Plug-In . SVG Version: 6.00 Build 0)  -->
<svg version="1.1" id="Layer_1" xmlns="http://www.w3.org/2000/svg" xmlns:xlink="http://www.w3.org/1999/xlink" x="0px" y="0px"
	 viewBox="0 0 384 512" style="enable-background:new 0 0 384 512;" xml:space="preserve">
<style type="text/css">
	.st0{fill:#FFFFFF;}
</style>
<g transform="translate(1 1)">
	<g>
		<g>
			<path class="st0" d="M307.2,357.4l-65.9-93.5l88.8-100.2c19.6-22.2,29.9-52.9,27.3-82.8C353.1,24.6,341.2,5,340.3,3.3
				C338.6,0.7,336-1,333.5-1c-3.4,0-6,0.9-7.7,3.4L191,192.5L57,2.4C56.2,0.7,52.8-1,50.2-1c-3.4,0-6,1.7-6.8,4.3
				C41.7,5,30.6,24.6,26.3,80.9c-2.6,29.9,7.7,59.7,27.3,82.8l86.8,99.1l-66.5,94.7C32.1,358.4-1,392.2-1,434.2
				c0,42.7,34.1,76.8,76.8,76.8s76.8-34.1,76.8-76.8c0-19.3-7-36.9-18.7-50.3l56.4-64.1l57,65c-11.2,13.3-17.9,30.5-17.9,49.4
				c0,42.7,34.1,76.8,76.8,76.8s76.8-34.1,76.8-76.8C383,391.9,349.4,358,307.2,357.4z M75.8,493.9c-33.3,0-59.7-26.5-59.7-59.7
				s26.5-59.7,59.7-59.7c14.4,0,27.5,5,37.8,13.3c1.1,0.9,2.2,1.9,3.2,2.9c0.5,0.5,0.9,0.9,1.4,1.2c10.8,10.8,17.4,25.7,17.4,42.3
				C135.5,467.5,109.1,493.9,75.8,493.9z M122.9,373.4c-8.2-6.4-17.8-11.1-28.2-13.7l57.9-82.5l27.3,30.7L122.9,373.4z M202.1,208.1
				L330.9,26.3c3.4,10.2,7.7,28.2,9.4,56.3c1.7,25.6-6.8,51.2-23,70l-86,97.1L210.4,220L202.1,208.1z M43.4,81.8
				c1.7-27.3,6-45.2,9.4-56.3l130.5,184.9c0.2,0.7,0.5,1.4,0.9,1.9l39.3,56.3c0.8,0.8,1.6,1.6,2.6,2.2l62.3,88.3
				c-4.3,1.1-8.5,2.6-12.6,4.5c-5.6,2.4-10.9,5.4-15.7,9L66.4,151.7C50.2,133,41.7,107.4,43.4,81.8z M306.2,493.9
				c-33.3,0-59.7-26.5-59.7-59.7c0-16.8,6.7-31.8,17.7-42.6c0.4-0.3,0.8-0.6,1.1-0.9c9.5-8.7,22-14.5,35.3-15.9
				c1.9-0.2,3.7-0.3,5.7-0.3c33.3,0,59.7,26.5,59.7,59.7S339.5,493.9,306.2,493.9z"/>
			<path class="st0" d="M306.2,391.5c-23.9,0-42.7,18.8-42.7,42.7s18.8,42.7,42.7,42.7s42.7-18.8,42.7-42.7S330.1,391.5,306.2,391.5
				z M306.2,459.8c-14.5,0-25.6-11.1-25.6-25.6s11.1-25.6,25.6-25.6s25.6,11.1,25.6,25.6C331.8,448.7,320.7,459.8,306.2,459.8z"/>
			<path class="st0" d="M75.8,391.5c-23.9,0-42.7,18.8-42.7,42.7s18.8,42.7,42.7,42.7s42.7-18.8,42.7-42.7S99.7,391.5,75.8,391.5z
				 M75.8,459.8c-14.5,0-25.6-11.1-25.6-25.6s11.1-25.6,25.6-25.6s25.6,11.1,25.6,25.6C101.4,448.7,90.3,459.8,75.8,459.8z"/>
		</g>
	</g>
</g>
</svg>
