<?xml version="1.0" encoding="utf-8"?>
<!-- Generator: Adobe Illustrator 21.0.0, SVG Export Plug-In . SVG Version: 6.00 Build 0)  -->
<svg version="1.1" id="Слой_1" xmlns="http://www.w3.org/2000/svg" xmlns:xlink="http://www.w3.org/1999/xlink" x="0px" y="0px"
	 viewBox="0 0 61 61" style="enable-background:new 0 0 61 61;" xml:space="preserve">
<style type="text/css">
	.st0{fill:#FFFFFF;}
</style>
<path class="st0" d="M51.2,9.7c0.5,0.5,0.5,1.3,0,1.7c-0.5,0.5-1.3,0.5-1.7,0c-0.5-0.5-0.5-1.3,0-1.7C50,9.2,50.8,9.2,51.2,9.7
	L51.2,9.7z M34.8,33.1l-2.6-2.6l4.3-4.3c0.5-0.5,0.5-1.3,0-1.7s-1.3-0.5-1.7,0l-5.2,5.2c-0.5,0.5-0.5,1.2,0,1.7l0,0l3.5,3.5
	c0.5,0.5,1.3,0.4,1.7-0.1C35.2,34.2,35.2,33.5,34.8,33.1L34.8,33.1z M47.8,40.9l-2.2-2.2c0.7-1.3,1.2-2.7,1.6-4.1l4.9-7.2
	c1.2-1.9,1.2-4.4,0-6.3l7.9-7.9c1.4-1.4,1.4-3.8,0-5.2l-7-6.9c-1.4-1.4-3.8-1.4-5.2,0L39.9,9c-1.9-1.2-4.4-1.2-6.3,0l-7.2,4.9
	c-6.2,1.5-11,6.4-12.6,12.6l-4.9,7.2c-1.2,1.9-1.2,4.4,0,6.3L1,47.9c-1.4,1.4-1.4,3.8,0,5.2l7,6.8c1.4,1.4,3.8,1.4,5.2,0L21,52
	c1.9,1.2,4.4,1.2,6.3,0l7.2-4.9c1.4-0.3,2.8-0.9,4.1-1.6l2.2,2.2c1,1,2.5,1,3.5,0l3.5-3.5C48.7,43.4,48.7,41.8,47.8,40.9z
	 M33.7,44.8L33.7,44.8c-0.7,0.2-1.4,0.2-2,0.3v-2.4c0-0.7-0.6-1.2-1.2-1.2c-0.7,0-1.2,0.5-1.2,1.2v2.4c-3-0.2-5.8-1.4-8.2-3.3l0,0
	L21,41.7l1.7-1.7c0.5-0.5,0.4-1.3,0-1.7c-0.5-0.5-1.2-0.5-1.7,0L19.3,40l-0.1-0.1l0,0c-1.9-2.3-3.1-5.2-3.3-8.2h2.4
	c0.7,0,1.2-0.6,1.2-1.3c0-0.6-0.5-1.2-1.2-1.2h-2.4c0.1-0.6,0.1-1.3,0.3-1.9v-0.1c0.5-2.3,1.6-4.4,3.1-6.2l1.7,1.7
	c0.5,0.5,1.3,0.4,1.7,0c0.5-0.5,0.5-1.2,0-1.7L21,19.3c1.8-1.5,3.9-2.6,6.2-3.1h0.1c0.6-0.1,1.3-0.2,1.9-0.3v2.4
	c0,0.7,0.6,1.2,1.2,1.2c0.7,0,1.2-0.5,1.2-1.2v-2.4c3,0.2,5.8,1.4,8.2,3.3l0,0l0.1,0.1L38.3,21c-0.5,0.5-0.5,1.2,0,1.7
	s1.3,0.5,1.7,0l1.7-1.7l0.1,0.1l0,0c1.9,2.3,3.1,5.2,3.3,8.2h-2.4c-0.7,0-1.2,0.5-1.2,1.2c0,0.3,0.1,0.6,0.4,0.9
	c0.2,0.2,0.5,0.4,0.9,0.4h2.4c-0.1,0.6-0.1,1.3-0.3,1.9v0.1c-0.3,1.5-0.9,3-1.7,4.3l-0.1,0.1c-0.4,0.6-0.8,1.2-1.3,1.8L40,38.3
	c-0.5-0.5-1.3-0.5-1.7,0s-0.5,1.3,0,1.7l1.7,1.7c-0.6,0.5-1.2,0.9-1.8,1.3c-0.1,0-0.1,0.1-0.1,0.1C36.7,43.9,35.2,44.4,33.7,44.8z
	 M49.5,2.8c0.5-0.5,1.3-0.5,1.7,0l6.9,6.9c0.5,0.5,0.5,1.2,0,1.7l0,0l-7.8,7.8l-8.7-8.7L49.5,2.8L49.5,2.8L49.5,2.8z M39.1,11.4
	l10.4,10.4c1.1,1.1,1.3,2.8,0.5,4.1l-2.4,3.6c-0.2-3.7-1.6-7.2-3.9-10l0,0c-0.1-0.1-0.1-0.2-0.2-0.2l-0.1-0.1L43.2,19
	c0-0.1-0.1-0.1-0.1-0.2L43,18.7c-0.1-0.1-0.2-0.2-0.3-0.3s-0.2-0.2-0.3-0.3L42.3,18L42,17.8c-0.1-0.1-0.1-0.1-0.2-0.2l-0.1-0.1
	l-0.2-0.2c0,0,0,0-0.1,0c-2.8-2.3-6.3-3.7-10-3.9L35,11C36.3,10.1,38,10.3,39.1,11.4z M11.4,58.2c-0.5,0.5-1.3,0.5-1.7,0l-6.9-6.9
	c-0.5-0.5-0.5-1.2,0-1.7l0,0l7.8-7.8l8.7,8.7L11.4,58.2z M21.8,49.5L11.4,39.1C10.3,38,10.1,36.3,11,35l2.4-3.6
	c0.2,3.7,1.6,7.2,3.9,10l0,0c0.1,0.1,0.2,0.2,0.2,0.3l0.1,0.1c0.1,0.1,0.1,0.1,0.2,0.2l0.1,0.1c0.1,0.1,0.1,0.1,0.2,0.2
	s0.1,0.1,0.2,0.2l0.1,0.1c0,0,0,0,0.1,0.1s0.2,0.1,0.2,0.2c0.1,0.1,0.1,0.1,0.2,0.2s0.1,0.1,0.1,0.1c0.1,0.1,0.1,0.1,0.2,0.2
	c0,0,0.1,0,0.1,0.1c0.1,0.1,0.2,0.1,0.3,0.2l0,0c2.8,2.3,6.3,3.7,10,3.9L26,50C24.7,50.8,22.9,50.6,21.8,49.5L21.8,49.5z M42.6,46
	l-1.9-1.9c0.7-0.5,1.3-1,1.9-1.6c0.6-0.6,1.1-1.2,1.6-1.9l1.9,1.9L42.6,46z"/>
</svg>
